{
  "project_info": {
    "project_number": "867565911429",
    "firebase_url": "https://qajohnnyzhijie.firebaseio.com",
    "project_id": "qajohnnyzhijie",
    "storage_bucket": "qajohnnyzhijie.appspot.com"
  },
  "client": [
    {
      "client_info": {
        "mobilesdk_app_id": "1:867565911429:android:5893fcfa39f6708b",
        "android_client_info": {
          "package_name": "ca.johnnyzhijie.qajohnnyzhijie"
        }
      },
      "oauth_client": [
        {
          "client_id": "867565911429-vu8lubod6on1ecdmqgou6rogeb0h8grl.apps.googleusercontent.com",
          "client_type": 1,
          "android_info": {
            "package_name": "ca.johnnyzhijie.qajohnnyzhijie",
            "certificate_hash": "d3ae450eeaa740c8525b30f83a6d074608022a8f"
          }
        },
        {
          "client_id": "867565911429-66p2g1djr2dvemvjq65mbv7fd8m0mmqo.apps.googleusercontent.com",
          "client_type": 3
        }
      ],
      "api_key": [
        {
          "current_key": "AIzaSyDarFmVYeeZZzp1zOmTj1OZ4IJ0mEUeKZs"
        }
      ],
      "services": {
        "analytics_service": {
          "status": 1
        },
        "appinvite_service": {
          "status": 2,
          "other_platform_oauth_client": [
            {
              "client_id": "867565911429-66p2g1djr2dvemvjq65mbv7fd8m0mmqo.apps.googleusercontent.com",
              "client_type": 3
            }
          ]
        },
        "ads_service": {
          "status": 2
        }
      }
    }
  ],
  "configuration_version": "1"
}